<?xml version="1.0" encoding="utf-8"?>
<!-- Generator: Adobe Illustrator 22.1.0, SVG Export Plug-In . SVG Version: 6.00 Build 0)  -->
<svg version="1.1" id="Layer_1" xmlns="http://www.w3.org/2000/svg" xmlns:xlink="http://www.w3.org/1999/xlink" x="0px" y="0px"
	 viewBox="0 0 56.5 58.5" style="enable-background:new 0 0 56.5 58.5;" xml:space="preserve">
<style type="text/css">
	.st0{display:none;}
	.st1{fill:#424242;}
</style>
<g id="Layer_4">
	<g>
		<path class="st1" d="M29.1,58.4c-0.4,0.2-1.6-0.1-1.7-0.2c-0.2-0.1-0.4-0.8-0.4-0.8c-0.2-0.4-0.3-1-0.3-1.5c0-1.8,0-3.5,0-5.3
			c0-0.2-0.1-0.4-0.2-0.6c-0.2,0.1-0.3,0.3-0.5,0.4c-1.7,1.7-3.3,3.4-5,5c-0.5,0.4-1.1,0.8-1.6,1.1c-0.6,0.4-1.1,0.4-1.6-0.1
			c-0.4-0.4-0.4-1.4-0.1-1.9c0.1-0.1,0.2-0.2,0.3-0.3c2.6-2.7,5.2-5.5,7.8-8.2c0.6-0.7,1-1.3,0.9-2.2c-0.1-1.1-0.1-2.3-0.1-3.4
			c-1.1,0-2.3-0.1-3.4-0.1c-7,0-13.9,0-20.9,0c-0.8,0-1.4-0.2-2-0.8c-0.4-0.6-0.5-1.1,0-1.6c0.1-0.1,0.2-0.2,0.3-0.3
			C1.2,37.3,2,37,2.2,36.5c0.3-0.7,0.1-1.6,0.1-2.5c0-9.7,0-19.4,0-29.1c0-0.6,0.2-1.4-1-1.3c-0.4,0-0.9-0.6-1.1-1
			C0,2.4,0,1.7,0.2,1.5C0.9,0.6,1.7,0,2.8,0C3.2,0,3.6,0,4,0c16.4,0,32.7,0,49.1,0c0.5,0,0.9,0,1.4,0c1.5,0.2,2.1,1,2,2.6
			c0,0.6-0.4,1.1-0.9,1.1c-1.3,0-1.4,0.8-1.4,1.8c0,7.2,0,14.4,0,21.6c0,2.6,0.1,5.2,0,7.8c0,1.2,0.1,2.1,1.5,2.4
			c0.6,0.1,0.9,0.7,0.9,1.4c0,1.5-0.2,1.8-1.8,1.8c-7.8,0-15.6,0-23.4,0c-1.4,0-1.4,0-1.4,1.3c0,1.2-0.3,2.5,0.2,3.6
			c0.4,1,1.5,1.7,2.3,2.5c2.2,2.2,4.4,4.4,6.6,6.7c0.8,0.8,0.7,1.2-0.2,2c-0.7,0.7-1.2,0.7-1.9,0c-2.1-2.1-4.2-4.2-6.3-6.3
			c-0.2-0.2-0.4-0.3-0.6-0.4c0,0.2-0.1,0.4-0.1,0.6c0,2,0,4,0,6c0,0.5,0,1.1-0.2,1.5L29.1,58.4z M28.3,36.7c2.3,0,4.6,0,6.9,0
			c5.1,0,10.2,0,15.4,0c1.4,0,1.4,0,1.4-1.5c0-0.1,0-0.2,0-0.2c0-9.7,0-19.4,0-29.1c0-0.5,0.1-1,0-1.4c-0.1-0.3-0.6-0.6-0.9-0.8
			c-0.2-0.1-0.6,0-0.9,0c-14.4,0-28.7,0-43.1,0c-1.8,0-1.9,0.1-1.9,2c0,9.9,0,19.7,0,29.6c0,1.5,0,1.5,1.6,1.5
			C13.9,36.7,21.1,36.7,28.3,36.7z"/>
		<path class="st1" d="M41.3,21.1c0,2.8,0,5.5,0,8.3c0,0.6,0,1-0.8,1c-1.4-0.1-2.7-0.1-4.1-0.1c-0.1-1.4-0.2-2.7-0.1-4.1
			c0.1-1.3-0.5-2.7,0.4-3.9c-0.9-1.2-0.3-2.6-0.4-4c0-0.8-0.4-1.7,0.3-2.4c-0.5-0.6-0.2-1.4-0.4-2.1c-0.3-0.8,0.8-1.4,0-2.2
			c0.2-0.2,0.4-0.4,0.7-0.6c0,0,0.1,0,0.2,0.1c0.7,0.4,1.3-0.4,2-0.1c0.3,0.1,0.6,0,0.9,0c0.2,0,0.3,0,0.5,0
			c0.6,0.2,0.9,0.6,0.9,1.3C41.3,15.3,41.3,18.2,41.3,21.1z"/>
		<path class="st1" d="M17.9,16.5c0,1.4,0,2.9,0,4.3c0,0.4,0.1,0.6-0.5,0.8c-2.8,1-5.4,2.5-8.2,3.4c-0.3,0.1-0.4,0.3-0.5-0.2
			c-0.7-2-0.6-4-0.4-6c0.1-1.2,0.9-2.4,1.7-3.4c1.6-1.8,3.3-3.5,6-3.6c0.1,0,0.3-0.1,0.4-0.2c1.4-0.5,1.4-0.5,1.4,1
			C17.9,14,17.9,15.3,17.9,16.5z"/>
		<path class="st1" d="M18.8,22.5c0-2.8,0-5.7,0-8.5c0-0.7,0.3-0.8,0.8-0.7c2.9,0.9,5.4,2.2,6.6,5.2c0.5,1.4,1.2,2.8,0.8,4.2
			c-0.3,1.3-0.3,2.9-1.5,3.9c-0.1,0.1-0.1,0.2-0.2,0.4c-0.4,0.5-0.7,0.9-1.1,1.4c-0.4-0.4-0.9-0.8-1.3-1.1c-0.1-0.1-0.3-0.1-0.4-0.2
			C21.3,25.6,20.1,24,18.8,22.5z"/>
		<path class="st1" d="M48.2,22.4c0,2.4,0,4.7,0,7.1c0,0.8-0.3,0.9-0.9,0.8c-0.8,0-1.5,0-2.3,0c-1.4,0-1.4,0-1.4-1.3c0-3,0-6,0-8.9
			c0-0.8,0-1.5,0-2.3c0-1.1,0-2.3,0.1-3.4c1.2-0.1,2.4,0,3.6-0.2c1-0.1,0.9,0.4,0.9,1.1C48.2,17.7,48.2,20,48.2,22.4z"/>
		<path class="st1" d="M18.8,22.5c1.2,1.5,2.4,3.1,3.7,4.6c0,0.2-0.1,0.5,0,0.7c0.8,1.2,0.8,1.2-0.4,1.8c-2.3,1.1-5.4,1.1-7.6-0.1
			c-1.5-0.8-2.4-2-3.4-3.2c-0.1-0.1-0.3-0.8,0.4-1.1c2.2-0.8,4.3-1.8,6.4-2.7C18.2,22.4,18.5,22.5,18.8,22.5z"/>
		<path class="st1" d="M34.5,25.5c0,0.5,0,1.1,0,1.6c0,1-0.1,2.1-0.2,3.1c-1.1,0-2.1,0.1-3.2,0.1c-0.4,0-0.8,0-1.1,0
			c-0.5,0-0.6-0.2-0.6-0.7c0-2.7,0-5.3,0-8c0-1,0.4-1.4,1.3-1.4c4.2,0,3.8-0.5,3.8,3.5C34.5,24.3,34.5,24.9,34.5,25.5z"/>
	</g>
</g>
</svg>
